D:\Intelegi\Department\src\main\java\org\bip\department\domain\Military.java
D:\Intelegi\Department\src\main\java\org\bip\department\repos\PassportRepo.java
D:\Intelegi\Department\src\main\java\org\bip\department\config\MvcConfig.java
D:\Intelegi\Department\src\main\java\org\bip\department\controller\PostgraduateController.java
D:\Intelegi\Department\src\main\java\org\bip\department\service\LanguageService.java
D:\Intelegi\Department\src\main\java\org\bip\department\service\PassportService.java
D:\Intelegi\Department\src\main\java\org\bip\department\controller\EducationController.java
D:\Intelegi\Department\src\main\java\org\bip\department\controller\LanguageController.java
D:\Intelegi\Department\src\main\java\org\bip\department\service\AttestationService.java
D:\Intelegi\Department\src\main\java\org\bip\department\repos\UserRepo.java
D:\Intelegi\Department\src\main\java\org\bip\department\controller\UserController.java
D:\Intelegi\Department\src\main\java\org\bip\department\service\EducationService.java
D:\Intelegi\Department\src\main\java\org\bip\department\repos\TelephoneRepo.java
D:\Intelegi\Department\src\main\java\org\bip\department\domain\ForeignLanguage.java
D:\Intelegi\Department\src\main\java\org\bip\department\domain\Date.java
D:\Intelegi\Department\src\main\java\org\bip\department\service\UserService.java
D:\Intelegi\Department\src\main\java\org\bip\department\repos\KinRepo.java
D:\Intelegi\Department\src\main\java\org\bip\department\repos\DocumentRepo.java
D:\Intelegi\Department\src\main\java\org\bip\department\service\MilitaryService.java
D:\Intelegi\Department\src\main\java\org\bip\department\service\ExperienceService.java
D:\Intelegi\Department\src\main\java\org\bip\department\repos\EducationRepo.java
D:\Intelegi\Department\src\main\java\org\bip\department\repos\EmployeesRepo.java
D:\Intelegi\Department\src\main\java\org\bip\department\controller\PassportController.java
D:\Intelegi\Department\src\main\java\org\bip\department\service\MaritalService.java
D:\Intelegi\Department\src\main\java\org\bip\department\controller\TrainingController.java
D:\Intelegi\Department\src\main\java\org\bip\department\service\RecruitmentService.java
D:\Intelegi\Department\src\main\java\org\bip\department\domain\Employee.java
D:\Intelegi\Department\src\main\java\org\bip\department\domain\Telephone.java
D:\Intelegi\Department\src\main\java\org\bip\department\domain\Contract.java
D:\Intelegi\Department\src\main\java\org\bip\department\service\SocialBenefitsService.java
D:\Intelegi\Department\src\main\java\org\bip\department\domain\Awards.java
D:\Intelegi\Department\src\main\java\org\bip\department\service\RetrainingService.java
D:\Intelegi\Department\src\main\java\org\bip\department\controller\ProfessionController.java
D:\Intelegi\Department\src\main\java\org\bip\department\domain\Postgraduate.java
D:\Intelegi\Department\src\main\java\org\bip\department\controller\MainController.java
D:\Intelegi\Department\src\main\java\org\bip\department\controller\MaritalController.java
D:\Intelegi\Department\src\main\java\org\bip\department\domain\User.java
D:\Intelegi\Department\src\main\java\org\bip\department\service\ContractService.java
D:\Intelegi\Department\src\main\java\org\bip\department\domain\Profession.java
D:\Intelegi\Department\src\main\java\org\bip\department\domain\Kin.java
D:\Intelegi\Department\src\main\java\org\bip\department\domain\Document.java
D:\Intelegi\Department\src\main\java\org\bip\department\service\TrainingService.java
D:\Intelegi\Department\src\main\java\org\bip\department\controller\RecruitmentController.java
D:\Intelegi\Department\src\main\java\org\bip\department\domain\Experience.java
D:\Intelegi\Department\src\main\java\org\bip\department\controller\ControllerUtils.java
D:\Intelegi\Department\src\main\java\org\bip\department\repos\ProfessionRepo.java
D:\Intelegi\Department\src\main\java\org\bip\department\controller\SocialBenefitsController.java
D:\Intelegi\Department\src\main\java\org\bip\department\controller\VocationController.java
D:\Intelegi\Department\src\main\java\org\bip\department\controller\TelephoneController.java
D:\Intelegi\Department\src\main\java\org\bip\department\domain\Passport.java
D:\Intelegi\Department\src\main\java\org\bip\department\service\AwardService.java
D:\Intelegi\Department\src\main\java\org\bip\department\repos\ContractRepo.java
D:\Intelegi\Department\src\main\java\org\bip\department\repos\MilitaryRepo.java
D:\Intelegi\Department\src\main\java\org\bip\department\repos\AwardRepo.java
D:\Intelegi\Department\src\main\java\org\bip\department\controller\AwardController.java
D:\Intelegi\Department\src\main\java\org\bip\department\controller\EmployeeController.java
D:\Intelegi\Department\src\main\java\org\bip\department\domain\SocialBenefits.java
D:\Intelegi\Department\src\main\java\org\bip\department\domain\Training.java
D:\Intelegi\Department\src\main\java\org\bip\department\repos\AttestationRepo.java
D:\Intelegi\Department\src\main\java\org\bip\department\controller\RetrainingController.java
D:\Intelegi\Department\src\main\java\org\bip\department\controller\AttestationController.java
D:\Intelegi\Department\src\main\java\org\bip\department\service\PostgraduateService.java
D:\Intelegi\Department\src\main\java\org\bip\department\service\VocationService.java
D:\Intelegi\Department\src\main\java\org\bip\department\repos\LanguageRepo.java
D:\Intelegi\Department\src\main\java\org\bip\department\service\TelephoneService.java
D:\Intelegi\Department\src\main\java\org\bip\department\config\WebSecurityConfig.java
D:\Intelegi\Department\src\main\java\org\bip\department\domain\Message.java
D:\Intelegi\Department\src\main\java\org\bip\department\domain\Retraining.java
D:\Intelegi\Department\src\main\java\org\bip\department\repos\VocationRepo.java
D:\Intelegi\Department\src\main\java\org\bip\department\service\EmployeeService.java
D:\Intelegi\Department\src\main\java\org\bip\department\repos\RecruitmentRepo.java
D:\Intelegi\Department\src\main\java\org\bip\department\controller\ExperienceController.java
D:\Intelegi\Department\src\main\java\org\bip\department\domain\Vocation.java
D:\Intelegi\Department\src\main\java\org\bip\department\repos\ExperienceRepo.java
D:\Intelegi\Department\src\main\java\org\bip\department\repos\PostgraduateRepo.java
D:\Intelegi\Department\src\main\java\org\bip\department\domain\Attestation.java
D:\Intelegi\Department\src\main\java\org\bip\department\domain\Marital.java
D:\Intelegi\Department\src\main\java\org\bip\department\controller\ContractController.java
D:\Intelegi\Department\src\main\java\org\bip\department\domain\Recruitment.java
D:\Intelegi\Department\src\main\java\org\bip\department\repos\RetrainingRepo.java
D:\Intelegi\Department\src\main\java\org\bip\department\controller\MilitaryController.java
D:\Intelegi\Department\src\main\java\org\bip\department\domain\Education.java
D:\Intelegi\Department\src\main\java\org\bip\department\repos\MaritalRepo.java
D:\Intelegi\Department\src\main\java\org\bip\department\repos\TrainingRepo.java
D:\Intelegi\Department\src\main\java\org\bip\department\service\ProfessionService.java
D:\Intelegi\Department\src\main\java\org\bip\department\Application.java
D:\Intelegi\Department\src\main\java\org\bip\department\repos\SocialBenefitsRepo.java
